Chapter 3 Handling Migration Data in R | Handling, Measuring, Estimating and Visualizing Migration Data in R
…
Note, above we use as_tibble() to convert the data.frame object returned from as.data.frame.table() to the more user friendly tibble object type (insert citation) and use the pipe line function %>% to combine together a sequence of R functions.

# convert array to tibble
d1 <- m1 %>%
  as.data.frame.table(responseName = "flow") %>%
  as_tibble()
d1

## # A tibble: 32 × 4
##    orig  dest  sex     flow
##    <fct> <fct> <fct>  <int>
##  1 A     A     female    30
##  2 B     A     female    62
##  3 C     A     female    98
##  4 D     A     female    19
##  5 A     B     female    60
##  6 B     B     female    68
##  7 C     B     female    50
##  8 D     B     female    95
##  9 A     C     female     5
## 10 B     C     female    79
## # … with 22 more rows
…
Note, when the data provided to the sum_region() is a data frame, the origin and destination regions names are assumed to be in variables named orig and dest. In addition, the migration data re assumed by default to be in variable named flow. If the corresponding column names differ, the user can supply these to the orig_col, dest_col and flow_col argumenets in the sum_region() function.

The sum_country() function provides the same calculations, but provides summary variables names corresponding to the equivalent terms used for international migration data. When the input data for either the sum_region() or sum_country() functions are over more than two dimensions, beyond the standard origin and destination dimensions, the group_by function from the dplyr package should be used to allow for specific calculations beyond the origin and destination dimensions. To demonstrate we will used the international flow estimates of Abel and Cohen (2019) which can be downloaded and read directly into R from the online CSV file.

# read data from web depository
f <- read_csv("https://ndownloader.figshare.com/files/26239945")
f

## # A tibble: 235,236 × 9
##    year0 orig  dest  sd_drop_neg sd_rev_neg mig_rate da_min_open da_mi…¹ da_pb…²
##    <dbl> <chr> <chr>       <dbl>      <dbl>    <dbl>       <dbl>   <dbl>   <dbl>
##  1  1990 BDI   BDI             0          0        0           0       0       0
##  2  1990 COM   BDI             0          0        0           0       0       0
##  3  1990 DJI   BDI             0          0        0           0       0       0
##  4  1990 ERI   BDI             0          0        0           0       0      90
##  5  1990 ETH   BDI             0          0        0           0       0       2
##  6  1990 KEN   BDI            30         30       69          45      29      87
##  7  1990 MDG   BDI             0          0        0           0       0       0
##  8  1990 MWI   BDI             0          0        0           0       0     125
##  9  1990 MUS   BDI             0          0        0           0       1       1
## 10  1990 MYT   BDI             0          0        0           0       0       0
## # … with 235,226 more rows, and abbreviated variable names ¹​da_min_closed,
## #   ²​da_pb_closed

# single period (1990-1995)
f %>%
  filter(year0 == 1990) %>%
  sum_country(flow_col = "da_pb_closed")

## # A tibble: 197 × 5
##    country    emi     imm    turn     net
##    <chr>    <dbl>   <dbl>   <dbl>   <dbl>
##  1 ABW       1662   15874   17536   14212
##  2 AFG     345255 3421712 3766967 3076457
##  3 AGO      82775  225637  308412  142862
##  4 ALB     464693   21479  486172 -443214
##  5 ARE     272648  640784  913432  368136
##  6 ARG     444239  339393  783632 -104846
##  7 ARM     648202  151937  800139 -496265
##  8 ATG       6153    8387   14540    2234
##  9 AUS     691618 1042781 1734399  351163
## 10 AUT     154853  382724  537577  227871
## # … with 187 more rows

# all periods using group_by
f %>%
  group_by(year0) %>%
  sum_country(flow_col = "da_pb_closed") %>%
  arrange(country)

## # A tibble: 1,188 × 6
## # Groups:   year0 [6]
##    year0 country     emi     imm    turn      net
##    <dbl> <chr>     <dbl>   <dbl>   <dbl>    <dbl>
##  1  1990 ABW        1662   15874   17536    14212
##  2  1995 ABW        4007   10945   14952     6938
##  3  2000 ABW        3814   10064   13878     6250
##  4  2005 ABW        7544    7124   14668     -420
##  5  2010 ABW        8654    9910   18564     1256
##  6  2015 ABW       16306   17316   33622     1010
##  7  1990 AFG      345255 3421712 3766967  3076457
##  8  1995 AFG     1286436  418906 1705342  -867530
##  9  2000 AFG      434706 1178865 1613571   744159
## 10  2005 AFG     1500149  457339 1957488 -1042810
## # … with 1,178 more rows
…
