Chapter 5 Migration Age Schedules | Handling, Measuring, Estimating and Visualizing Migration Data in R
…
The (UnitedNations1992?) proposed a number of alternative sets of parameter values to seven-parameter model age schedules in settings outside of the Western-country populations used by (Rogers1981?) when designing their fundamental parameter set. These parameters are provided in the rc_model_un data frame

rc_model_un

## # A tibble: 84 × 5
##    schedule         schedule_abb sex   param     value
##    <chr>            <chr>        <chr> <chr>     <dbl>
##  1 Western standard ws           male  a1       0.0215
##  2 Western standard ws           male  alpha1   0.105 
##  3 Western standard ws           male  a2       0.0694
##  4 Western standard ws           male  alpha2   0.112 
##  5 Western standard ws           male  mu2     20.0   
##  6 Western standard ws           male  lambda2  0.391 
##  7 Western standard ws           male  c        0.0028
##  8 Low dependency   ld           male  a1       0.0128
##  9 Low dependency   ld           male  alpha1   0.105 
## 10 Low dependency   ld           male  a2       0.0804
## # … with 74 more rows
…
# format age column to numeric values
imm_cy_2011 <- imm_cy_2011 %>%
  mutate(
    age = str_remove(string = age, pattern = "Y"),
    age = case_when(
      age == "_LT1" ~ "0",
      age == "_GE100" ~ "101",
      TRUE ~ age
    ), 
    age = as.numeric(age)
  )
imm_cy_2011 

## # A tibble: 162 × 7
##    agedef   age unit  sex   geo   time       values
##    <chr>  <dbl> <chr> <chr> <chr> <date>      <dbl>
##  1 REACH      1 NR    F     CY    2011-01-01    130
##  2 REACH      1 NR    M     CY    2011-01-01    136
##  3 REACH     10 NR    F     CY    2011-01-01     88
##  4 REACH     10 NR    M     CY    2011-01-01    102
##  5 REACH     11 NR    F     CY    2011-01-01     97
##  6 REACH     11 NR    M     CY    2011-01-01     89
##  7 REACH     12 NR    F     CY    2011-01-01     89
##  8 REACH     12 NR    M     CY    2011-01-01     79
##  9 REACH     13 NR    F     CY    2011-01-01     65
## 10 REACH     13 NR    M     CY    2011-01-01     73
## # … with 152 more rows
…
The general shape of the observed values indicate that a seven parameter Rogers Castro migration age schedules is appropriate, where is no retirement peak or post-retirement slope are visable.

The mx values required in the mig_estimate_rc() function represent the standardized migration intensities corresponding to the ages in the ages vector, meaning that their sum should be equal to one. This ensures that the migration intensities are properly scaled and reflect the relative proportions of migration within each age group.

When using the mig_estimate_rc() function, it is common to wait for a few minutes during the computation time. Additionally, the function may print out several messages from Stan, with information about the estimation process, including the progress of the MCMC sampling and any convergence diagnostics.

It is recommended to carefully review the messages printed during the estimation process to ensure that the estimation has converged properly and that the results are reliable. The messages can provide insights into the estimation process and help identify any potential issues or concerns.

# standardize migration intensity
imm_cy_2011 <- imm_cy_2011 %>%
  group_by(sex) %>%
  mutate(mx = values/sum(values)) 
imm_cy_2011

## # A tibble: 162 × 8
## # Groups:   sex [2]
##    agedef   age unit  sex   geo   time       values      mx
##    <chr>  <dbl> <chr> <chr> <chr> <date>      <dbl>   <dbl>
##  1 REACH      1 NR    F     CY    2011-01-01    130 0.0102 
##  2 REACH      1 NR    M     CY    2011-01-01    136 0.0132 
##  3 REACH     10 NR    F     CY    2011-01-01     88 0.00693
##  4 REACH     10 NR    M     CY    2011-01-01    102 0.00987
##  5 REACH     11 NR    F     CY    2011-01-01     97 0.00763
##  6 REACH     11 NR    M     CY    2011-01-01     89 0.00862
##  7 REACH     12 NR    F     CY    2011-01-01     89 0.00700
##  8 REACH     12 NR    M     CY    2011-01-01     79 0.00765
##  9 REACH     13 NR    F     CY    2011-01-01     65 0.00512
## 10 REACH     13 NR    M     CY    2011-01-01     73 0.00707
## # … with 152 more rows
…
## # A tibble: 7 × 4
##   variable    median      lower    upper
##   <chr>        <dbl>      <dbl>    <dbl>
## 1 a1        0.0119    0.0102     0.0136 
## 2 a2        0.0589    0.0536     0.0667 
## 3 alpha1    0.0445    0.0290     0.0675 
## 4 alpha2    0.0773    0.0683     0.0912 
## 5 c         0.000574  0.0000302  0.00175
## 6 lambda2   0.297     0.240      0.355  
## 7 mu2      21.0      20.5       22.0

# fitted schedule
f_cy_male$fit_df

## # A tibble: 81 × 6
##      age    data  median   lower   upper       diff_sq
##    <dbl>   <dbl>   <dbl>   <dbl>   <dbl>         <dbl>
##  1     1 0.0132  0.0120  0.0107  0.0134  0.00000134   
##  2    10 0.00987 0.00826 0.00731 0.00908 0.00000262   
##  3    11 0.00862 0.00792 0.00692 0.00878 0.000000481  
##  4    12 0.00765 0.00761 0.00657 0.00850 0.00000000137
##  5    13 0.00707 0.00732 0.00624 0.00825 0.0000000630 
##  6    14 0.00687 0.00707 0.00598 0.00802 0.0000000400 
##  7    15 0.00552 0.00702 0.00596 0.00799 0.00000226   
##  8    16 0.00823 0.00752 0.00641 0.00876 0.000000499  
##  9    17 0.00629 0.00915 0.00777 0.0108  0.00000818   
## 10    18 0.0149  0.0123  0.0106  0.0141  0.00000677   
## # … with 71 more rows
…
Most smoothing functions in R typically require two vectors: x and y. The x vector represents the independent variable, such as age, and the y vector represents the dependent variable, such as migration intensity. These functions often have optional arguments that allow you to control the smoothness of the fit, although the names of these arguments may vary depending on the specific smoothing function.

When applying a smoothing function, it will return a list with two components: x and y. It’s important to note that the length of the x vector may differ from the original vector provided. To control the output length, some smoothing functions offer arguments (with different names depending on the function) that allow you to specify the desired length of the output. The x component of the output will match the age values, while the y component will represent the smoothed values of the dependent variable.

5.3.1 Kernal Smoothing

The ksmooth() function in the stats package performs kernel regression smoothing. It estimates a smooth curve by applying a kernel weighting to nearby data points, allowing for flexible and localized smoothing. To demonstrate we will use the migration intensities calculated from the Brazil 2000 IPUMS International sample provided in the ipums_age data frame. Note, there are no intensities for ages below five as the question on previous place of residence five-years prior to the census was not applicable for the sub population.

bra_2000 <- ipumsi_age %>%
  filter(sample == "BRA2000",
         age > 5) %>%
  mutate(mi = migrants/population)
bra_2000

## # A tibble: 95 × 5
##    sample    age migrants population     mi
##    <chr>   <dbl>    <dbl>      <dbl>  <dbl>
##  1 BRA2000     6  355723.   3311728. 0.107 
##  2 BRA2000     7  343852.   3307567. 0.104 
##  3 BRA2000     8  327166.   3258046. 0.100 
##  4 BRA2000     9  314905.   3272305. 0.0962
##  5 BRA2000    10  324066.   3345583. 0.0969
##  6 BRA2000    11  329525.   3451739. 0.0955
##  7 BRA2000    12  327113.   3518160. 0.0930
##  8 BRA2000    13  323180.   3473133. 0.0931
##  9 BRA2000    14  334783.   3566239. 0.0939
## 10 BRA2000    15  337297.   3528845. 0.0956
## # … with 85 more rows
…
## List of 2
##  $ x: num [1:95] 6 7 8 9 10 11 12 13 14 15 ...
##  $ y: num [1:95] 0.1074 0.104 0.1004 0.0962 0.0969 ...

The ksmooth() function is unlikely to smooth a migration age schedule as the default bandwidth parameter is too small for one hundred odd age groups. The bandwidth parameter can be increased to provide a more suitable fit

bra_2000 <- bra_2000 %>% 
  mutate(
    k_default = ksmooth(x = age, y = mi, n.points = n())$y,
    k_5 = ksmooth(x = age, y = mi, n.points = n(), bandwidth = 5)$y,
    k_10 = ksmooth(x = age, y = mi, n.points = n(), bandwidth = 10)$y
  )
bra_2000

## # A tibble: 95 × 8
##    sample    age migrants population     mi k_default    k_5   k_10
##    <chr>   <dbl>    <dbl>      <dbl>  <dbl>     <dbl>  <dbl>  <dbl>
##  1 BRA2000     6  355723.   3311728. 0.107     0.107  0.104  0.100 
##  2 BRA2000     7  343852.   3307567. 0.104     0.104  0.102  0.0990
##  3 BRA2000     8  327166.   3258046. 0.100     0.100  0.101  0.0983
##  4 BRA2000     9  314905.   3272305. 0.0962    0.0962 0.0986 0.0978
##  5 BRA2000    10  324066.   3345583. 0.0969    0.0969 0.0964 0.0976
##  6 BRA2000    11  329525.   3451739. 0.0955    0.0955 0.0949 0.0978
##  7 BRA2000    12  327113.   3518160. 0.0930    0.0930 0.0944 0.0975
##  8 BRA2000    13  323180.   3473133. 0.0931    0.0931 0.0942 0.0982
##  9 BRA2000    14  334783.   3566239. 0.0939    0.0939 0.0950 0.100 
## 10 BRA2000    15  337297.   3528845. 0.0956    0.0956 0.0973 0.103 
## # … with 85 more rows
…
