Chapter 4 Summary Migration Indices | Handling, Measuring, Estimating and Visualizing Migration Data in R
…
library(tidyverse)
library(archive)

# read in data
pw <- archive_read(
    archive = "https://data.worldpop.org/GIS/Population_Weighted_Density/Unconstrained_Subnational/100m/PWD_100m_sub_national_CSV.zip",
    file = 5
  ) %>%
  read_csv()

# view
pw

## # A tibble: 3,521 × 25
##     year ISO   ISO_No Country_N Adm_N GID_1 HASC  PWC_Lat PWC_Lon    Pop Density
##    <dbl> <chr>  <dbl> <chr>     <chr> <chr> <chr>   <dbl>   <dbl>  <dbl>   <dbl>
##  1  2020 RUS      643 Russia    Adyg… RUS.… RU.AD    44.8    39.8 5.13e5    66.4
##  2  2020 RUS      643 Russia    Altay RUS.… RU.AL    52.8    83.0 2.28e6    13.9
##  3  2020 RUS      643 Russia    Amur  RUS.… RU.AM    51.2   128.  7.75e5     2.2
##  4  2020 RUS      643 Russia    Arkh… RUS.… RU.AR    63.4    41.8 1.10e6     2.8
##  5  2020 RUS      643 Russia    Astr… RUS.… RU.AS    46.6    47.8 1.04e6    23.5
##  6  2020 RUS      643 Russia    Bash… RUS.… RU.BK    54.4    55.9 4.17e6    29.2
##  7  2020 RUS      643 Russia    Belg… RUS.… RU.BL    50.8    37.2 1.63e6    57.7
##  8  2020 RUS      643 Russia    Brya… RUS.… RU.BR    53.0    33.7 1.20e6    35.3
##  9  2020 RUS      643 Russia    Bury… RUS.… RU.BU    52.0   108.  9.96e5     3  
## 10  2020 RUS      643 Russia    Chec… RUS.… RU.CN    43.3    45.8 1.49e6    99  
## # … with 3,511 more rows, and 14 more variables: Area <dbl>, PWD_A <dbl>,
## #   PWD_G <dbl>, PWD_M <dbl>, PWD_D1 <dbl>, PWD_D2 <dbl>, PWD_D3 <dbl>,
## #   PWD_D4 <dbl>, PWD_D5 <dbl>, PWD_D6 <dbl>, PWD_D7 <dbl>, PWD_D8 <dbl>,
## #   PWD_D9 <dbl>, PWD_D10 <dbl>
…
